<?xml version="1.0" encoding="UTF-8" standalone="no"?>
<svg width="22px" height="60px" viewBox="0 0 22 60" version="1.1" xmlns="http://www.w3.org/2000/svg" xmlns:xlink="http://www.w3.org/1999/xlink" xmlns:sketch="http://www.bohemiancoding.com/sketch/ns">
    <!-- Generator: Sketch 3.3.2 (12043) - http://www.bohemiancoding.com/sketch -->
    <title>Artboard 17</title>
    <desc>Created with Sketch.</desc>
    <defs></defs>
    <g id="Icons" stroke="none" stroke-width="1" fill="none" fill-rule="evenodd" sketch:type="MSPage">
        <g id="Artboard-17" sketch:type="MSArtboardGroup">
            <g id="Oval-11-+-Rectangle-27-Copy" sketch:type="MSLayerGroup">
                <circle id="Oval-11" fill="#09B0AC" sketch:type="MSShapeGroup" cx="11" cy="11" r="11"></circle>
                <path d="M12,10 L12,6.00247329 C12,5.45576096 11.5522847,5 11,5 C10.4438648,5 10,5.44882258 10,6.00247329 L10,10 L6.00247329,10 C5.45576096,10 5,10.4477153 5,11 C5,11.5561352 5.44882258,12 6.00247329,12 L10,12 L10,15.9975267 C10,16.544239 10.4477153,17 11,17 C11.5561352,17 12,16.5511774 12,15.9975267 L12,12 L15.9975267,12 C16.544239,12 17,11.5522847 17,11 C17,10.4438648 16.5511774,10 15.9975267,10 L12,10 Z" id="Rectangle-27" fill="#FFFFFF" sketch:type="MSShapeGroup"></path>
            </g>
            <g id="Plus-Copy" sketch:type="MSLayerGroup" transform="translate(0.000000, 38.000000)">
                <g id="Plus" sketch:type="MSShapeGroup">
                    <circle id="Oval-11" fill="#09B0AC" cx="11" cy="11" r="11"></circle>
                    <rect id="Rectangle-27" fill="#FFFFFF" x="5" y="10" width="12" height="2" rx="40"></rect>
                </g>
            </g>
        </g>
    </g>
</svg>