<?xml version="1.0" encoding="UTF-8" standalone="no"?>
<svg width="80px" height="80px" viewBox="0 0 80 80" version="1.1" xmlns="http://www.w3.org/2000/svg" xmlns:xlink="http://www.w3.org/1999/xlink" xmlns:sketch="http://www.bohemiancoding.com/sketch/ns">
    <!-- Generator: Sketch 3.3.2 (12043) - http://www.bohemiancoding.com/sketch -->
    <title>Landlord and Tenants</title>
    <desc>Created with Sketch.</desc>
    <defs></defs>
    <g id="Icons" stroke="none" stroke-width="1" fill="none" fill-rule="evenodd" sketch:type="MSPage">
        <g id="Landlord-and-Tenants" sketch:type="MSArtboardGroup">
            <g id="Imported-Layers-Copy-2" sketch:type="MSLayerGroup" transform="translate(4.000000, 20.000000)">
                <path d="M15.2279655,19.3983017 L7.86033621,26.765931 C7.37540517,27.2512155 6.80493966,27.6021897 6.19630172,27.8192069 L6.19630172,36.3143362 C6.19630172,38.7980172 8.22827586,40.8303448 10.7123103,40.8303448 C11.0346552,40.8303448 11.3495776,40.7960603 11.6531897,40.7310259 L10.7123103,40.7310259 C8.22827586,40.7310259 6.19630172,38.6986983 6.19630172,36.2150172 C6.19630172,33.7313362 8.22827586,31.6990086 10.7123103,31.6990086 L15.2279655,31.6990086 L15.2279655,19.3983017" id="Fill-1" fill="#7E1E64" sketch:type="MSShapeGroup"></path>
                <path d="M36.2309224,40.7310259 L34.3488103,40.7310259 C34.6524224,40.7960603 34.9673448,40.8303448 35.2896897,40.8303448 C35.6123879,40.8303448 35.9273103,40.7960603 36.2309224,40.7310259 M30.7740345,19.0049138 L30.7740345,31.6990086 L39.8056983,31.6990086 L39.8056983,19.1257931 L38.5177328,20.4137586 C37.6397672,21.2920776 36.4818707,21.7310603 35.3243276,21.7310603 C34.1671379,21.7310603 33.0095948,21.2920776 32.1312759,20.4137586 C31.9941379,20.2766207 31.8676034,20.1327672 31.7516724,19.9825517 L30.7740345,19.0049138" id="Fill-2" fill="#D40F65" sketch:type="MSShapeGroup"></path>
                <path d="M30.7740345,31.6990086 L15.2279655,31.6990086 L15.2279655,36.3143362 C15.2279655,38.4756724 13.6894052,40.2948707 11.6531897,40.7310259 L34.3488103,40.7310259 C33.2110603,40.4871466 32.2288276,39.8117069 31.583431,38.8860259 C31.0302845,38.1367155 30.7026379,37.2124483 30.7026379,36.2150172 C30.7026379,35.9425086 30.7270259,35.6756552 30.7740345,35.4162241 L30.7740345,31.6990086" id="Fill-3" fill="#F18926" sketch:type="MSShapeGroup"></path>
                <path d="M15.2279655,31.6990086 L10.7123103,31.6990086 C8.22827586,31.6990086 6.19630172,33.7313362 6.19630172,36.2150172 C6.19630172,38.6986983 8.22827586,40.7310259 10.7123103,40.7310259 L11.6531897,40.7310259 C13.6894052,40.2948707 15.2279655,38.4756724 15.2279655,36.3143362 L15.2279655,31.6990086" id="Fill-4" fill="#77100F" sketch:type="MSShapeGroup"></path>
                <path d="M31.583431,38.8860259 C32.2288276,39.8117069 33.2110603,40.4871466 34.3488103,40.7310259 L35.2896897,40.7310259 L35.2186466,40.7310259 C33.7320431,40.7310259 32.407319,40.0029224 31.583431,38.8860259 M35.2186466,31.6990086 L30.7740345,31.6990086 L30.7740345,35.4162241 C31.1539914,33.3100259 33.0074741,31.6990086 35.2186466,31.6990086" id="Fill-5" fill="#C8070F" sketch:type="MSShapeGroup"></path>
                <path d="M26.3909224,1.84924138 C28.1472069,3.60517241 28.1472069,6.47906034 26.3909224,8.23534483 L23.1978707,11.42875 L30.7740345,19.0049138 L30.7740345,17.3281552 C30.7740345,16.8025776 30.8648707,16.2967931 31.0320517,15.8263534 C31.2441207,15.1671724 31.6106466,14.5482845 32.1312759,14.0273017 L35.3504828,10.8084483 L26.3909224,1.84924138" id="Fill-6" fill="#FFCC21" sketch:type="MSShapeGroup"></path>
                <path d="M31.0320517,15.8263534 C30.8648707,16.2967931 30.7740345,16.8025776 30.7740345,17.3281552 L30.7740345,19.0049138 L31.7516724,19.9825517 C30.8252845,18.7836552 30.5852931,17.2161121 31.0320517,15.8263534" id="Fill-7" fill="#D40C0D" sketch:type="MSShapeGroup"></path>
                <path d="M23.1975172,0.531939655 C22.0399741,0.531939655 20.8827845,0.970922414 20.0044655,1.84924138 L1.47423276,20.3794741 C-0.282405172,22.1357586 -0.282405172,25.0096466 1.47423276,26.765931 C2.35219828,27.6438966 3.50974138,28.0828793 4.66728448,28.0828793 C5.18508621,28.0828793 5.70324138,27.9952241 6.19630172,27.8192069 L6.19630172,17.8166207 C6.19630172,15.3329397 8.22827586,13.3006121 10.7123103,13.3006121 C13.1959914,13.3006121 15.2279655,15.3329397 15.2279655,17.8166207 L15.2279655,19.3983017 L23.1978707,11.42875 L20.0044655,8.23534483 C18.248181,6.47906034 18.248181,3.60517241 20.0044655,1.84924138 C20.8827845,0.970922414 22.0399741,0.531939655 23.1975172,0.531939655 C24.3550603,0.531939655 25.5126034,0.970922414 26.3909224,1.84924138 C25.5126034,0.970922414 24.3550603,0.531939655 23.1975172,0.531939655" id="Fill-8" fill="#F18926" sketch:type="MSShapeGroup"></path>
                <path d="M10.7123103,13.3006121 C8.22827586,13.3006121 6.19630172,15.3329397 6.19630172,17.8166207 L6.19630172,27.8192069 C6.80493966,27.6021897 7.37540517,27.2512155 7.86033621,26.765931 L15.2279655,19.3983017 L15.2279655,17.8166207 C15.2279655,15.3329397 13.1959914,13.3006121 10.7123103,13.3006121" id="Fill-9" fill="#77100F" sketch:type="MSShapeGroup"></path>
                <path d="M23.1975172,0.531939655 C22.0399741,0.531939655 20.8827845,0.970922414 20.0044655,1.84924138 C18.248181,3.60517241 18.248181,6.47906034 20.0044655,8.23534483 L23.1978707,11.42875 L26.3909224,8.23534483 C28.1472069,6.47906034 28.1472069,3.60517241 26.3909224,1.84924138 C25.5126034,0.970922414 24.3550603,0.531939655 23.1975172,0.531939655" id="Fill-10" fill="#F16E05" sketch:type="MSShapeGroup"></path>
                <path d="M64.3120345,36.2150172 C64.3120345,38.6986983 62.2800603,40.7310259 59.7963793,40.7310259 L58.8551466,40.7310259 C59.1587586,40.7960603 59.473681,40.8303448 59.7963793,40.8303448 C62.2800603,40.8303448 64.3120345,38.7980172 64.3120345,36.3143362 L64.3120345,36.2150172 M55.2803707,18.5316466 L55.2803707,31.6990086 L59.7963793,31.6990086 C62.2800603,31.6990086 64.3120345,33.7313362 64.3120345,36.2150172 L64.3120345,27.4003707 C64.028569,27.2232931 63.7606552,27.011931 63.5146552,26.765931 L55.2803707,18.5316466" id="Fill-11" fill="#E94D3C" sketch:type="MSShapeGroup"></path>
                <path d="M55.2803707,31.6990086 L39.8056983,31.6990086 L39.8056983,36.3143362 C39.8056983,38.4756724 38.2671379,40.2948707 36.2309224,40.7310259 L58.8551466,40.7310259 C56.818931,40.2948707 55.2803707,38.4756724 55.2803707,36.3143362 L55.2803707,31.6990086" id="Fill-12" fill="#FFCC21" sketch:type="MSShapeGroup"></path>
                <path d="M39.8056983,36.2150172 C39.8056983,38.6986983 37.7733707,40.7310259 35.2896897,40.7310259 L36.2309224,40.7310259 C38.2671379,40.2948707 39.8056983,38.4756724 39.8056983,36.3143362 L39.8056983,36.2150172 M39.8056983,31.6990086 L35.2186466,31.6990086 L35.2896897,31.6990086 C37.7733707,31.6990086 39.8056983,33.7313362 39.8056983,36.2150172 L39.8056983,31.6990086" id="Fill-13" fill="#D40C0D" sketch:type="MSShapeGroup"></path>
                <path d="M30.7740345,35.4162241 C30.7270259,35.6756552 30.7026379,35.9425086 30.7026379,36.2150172 C30.7026379,37.2124483 31.0302845,38.1367155 31.583431,38.8860259 C31.0734052,38.1550948 30.7740345,37.2679397 30.7740345,36.3143362 L30.7740345,35.4162241" id="Fill-14" fill="#F16E05" sketch:type="MSShapeGroup"></path>
                <path d="M35.2896897,31.6990086 L35.2186466,31.6990086 C33.0074741,31.6990086 31.1539914,33.3100259 30.7740345,35.4162241 L30.7740345,36.3143362 C30.7740345,37.2679397 31.0734052,38.1550948 31.583431,38.8860259 C32.407319,40.0029224 33.7320431,40.7310259 35.2186466,40.7310259 L35.2896897,40.7310259 C37.7733707,40.7310259 39.8056983,38.6986983 39.8056983,36.2150172 C39.8056983,33.7313362 37.7733707,31.6990086 35.2896897,31.6990086" id="Fill-15" fill="#C80602" sketch:type="MSShapeGroup"></path>
                <path d="M59.7963793,31.6990086 L55.2803707,31.6990086 L55.2803707,36.3143362 C55.2803707,38.4756724 56.818931,40.2948707 58.8551466,40.7310259 L59.7963793,40.7310259 C62.2800603,40.7310259 64.3120345,38.6986983 64.3120345,36.2150172 C64.3120345,33.7313362 62.2800603,31.6990086 59.7963793,31.6990086" id="Fill-16" fill="#E93E07" sketch:type="MSShapeGroup"></path>
                <path d="M51.0333362,1.51169828 C52.7896207,3.26798276 52.7896207,6.14187069 51.0333362,7.89815517 L47.8402845,11.0915603 L55.2803707,18.5316466 L55.2803707,16.7654655 C55.2803707,14.281431 57.3126983,12.2494569 59.7963793,12.2494569 C62.2800603,12.2494569 64.3120345,14.281431 64.3120345,16.7654655 L64.3120345,27.4003707 C65.0411983,27.8556121 65.8746293,28.0828793 66.7080603,28.0828793 C67.8656034,28.0828793 69.0231466,27.6438966 69.9011121,26.765931 C71.6573966,25.0096466 71.6573966,22.1357586 69.9011121,20.3794741 L51.0333362,1.51169828" id="Fill-17" fill="#7E1E64" sketch:type="MSShapeGroup"></path>
                <path d="M59.7963793,12.2494569 C57.3126983,12.2494569 55.2803707,14.281431 55.2803707,16.7654655 L55.2803707,18.5316466 L63.5146552,26.765931 C63.7606552,27.011931 64.028569,27.2232931 64.3120345,27.4003707 L64.3120345,16.7654655 C64.3120345,14.281431 62.2800603,12.2494569 59.7963793,12.2494569" id="Fill-18" fill="#730818" sketch:type="MSShapeGroup"></path>
                <path d="M47.8402845,0.19475 C46.6827414,0.19475 45.5251983,0.633732759 44.6468793,1.51169828 L35.3504828,10.8084483 L38.4883966,13.9463621 C39.3900431,14.8480086 39.8286724,16.044431 39.8046379,17.2327241 C39.8053448,17.2645345 39.8056983,17.2963448 39.8056983,17.3281552 L39.8056983,19.1257931 L47.8402845,11.0915603 L44.6468793,7.89815517 C42.8905948,6.14187069 42.8905948,3.26798276 44.6468793,1.51169828 C45.5251983,0.633732759 46.6827414,0.19475 47.8402845,0.19475 C48.9978276,0.19475 50.1553707,0.633732759 51.0333362,1.51169828 C50.1553707,0.633732759 48.9978276,0.19475 47.8402845,0.19475" id="Fill-19" fill="#E94D3C" sketch:type="MSShapeGroup"></path>
                <path d="M39.8046379,17.2327241 C39.7816638,18.3591638 39.3430345,19.478181 38.4883966,20.3331724 C37.610431,21.2111379 36.4528879,21.6501207 35.2953448,21.6501207 C34.1378017,21.6501207 32.9802586,21.2111379 32.1019397,20.3331724 L31.7516724,19.9825517 C31.8676034,20.1327672 31.9941379,20.2766207 32.1312759,20.4137586 C33.0095948,21.2920776 34.1671379,21.7310603 35.3243276,21.7310603 C36.4818707,21.7310603 37.6397672,21.2920776 38.5177328,20.4137586 L39.8056983,19.1257931 L39.8056983,17.3281552 C39.8056983,17.2963448 39.8053448,17.2645345 39.8046379,17.2327241" id="Fill-20" fill="#C20518" sketch:type="MSShapeGroup"></path>
                <path d="M35.3504828,10.8084483 L32.1312759,14.0273017 C31.6106466,14.5482845 31.2441207,15.1671724 31.0320517,15.8263534 C31.6544741,14.0753707 33.3319397,12.8125 35.2896897,12.8125 C37.7415603,12.8125 39.7533879,14.7928707 39.8046379,17.2327241 C39.8286724,16.044431 39.3900431,14.8480086 38.4883966,13.9463621 L35.3504828,10.8084483" id="Fill-21" fill="#E93E07" sketch:type="MSShapeGroup"></path>
                <path d="M35.2896897,12.8125 C33.3319397,12.8125 31.6544741,14.0753707 31.0320517,15.8263534 C30.5852931,17.2161121 30.8252845,18.7836552 31.7516724,19.9825517 L32.1019397,20.3331724 C32.9802586,21.2111379 34.1378017,21.6501207 35.2953448,21.6501207 C36.4528879,21.6501207 37.610431,21.2111379 38.4883966,20.3331724 C39.3430345,19.478181 39.7816638,18.3591638 39.8046379,17.2327241 C39.7533879,14.7928707 37.7415603,12.8125 35.2896897,12.8125" id="Fill-22" fill="#C20403" sketch:type="MSShapeGroup"></path>
                <path d="M47.8402845,0.19475 C46.6827414,0.19475 45.5251983,0.633732759 44.6468793,1.51169828 C42.8905948,3.26798276 42.8905948,6.14187069 44.6468793,7.89815517 L47.8402845,11.0915603 L51.0333362,7.89815517 C52.7896207,6.14187069 52.7896207,3.26798276 51.0333362,1.51169828 C50.1553707,0.633732759 48.9978276,0.19475 47.8402845,0.19475" id="Fill-23" fill="#730818" sketch:type="MSShapeGroup"></path>
            </g>
        </g>
    </g>
</svg>