<?xml version="1.0" encoding="UTF-8" standalone="no"?>
<svg width="80px" height="80px" viewBox="0 0 80 80" version="1.1" xmlns="http://www.w3.org/2000/svg" xmlns:xlink="http://www.w3.org/1999/xlink" xmlns:sketch="http://www.bohemiancoding.com/sketch/ns">
    <!-- Generator: Sketch 3.3.2 (12043) - http://www.bohemiancoding.com/sketch -->
    <title>Travel</title>
    <desc>Created with Sketch.</desc>
    <defs></defs>
    <g id="Icons" stroke="none" stroke-width="1" fill="none" fill-rule="evenodd" sketch:type="MSPage">
        <g id="Travel" sketch:type="MSArtboardGroup">
            <g id="Imported-Layers" sketch:type="MSLayerGroup" transform="translate(39.500000, 40.500000) rotate(-315.000000) translate(-39.500000, -40.500000) translate(8.000000, 5.000000)">
                <path d="M31.1968608,28.1142025 L25.4000253,31.9926899 L25.4000253,50.9622722 L26.3041519,50.0581456 C26.5436646,49.6519177 26.8375506,49.2695063 27.1858101,48.9216962 C28.302038,47.805019 29.7737152,47.2469051 31.2453924,47.2469051 C31.2880823,47.2469051 31.3303228,47.2473544 31.3730127,47.2482532 C31.4157025,47.2473544 31.4583924,47.2469051 31.5010823,47.2469051 C32.9723101,47.2469051 34.4439873,47.805019 35.5606646,48.9216962 C35.9089241,49.2695063 36.2023608,49.6519177 36.4418734,50.0581456 L36.8831519,50.4994241 L36.8831519,31.9185443 L31.1968608,28.1142025 M31.1415886,0.387803797 C27.9838861,0.387803797 25.4000253,2.97121519 25.4000253,6.12891772 L25.4000253,18.1768987 L27.9542278,16.4679557 C28.9293544,15.8159241 30.0361456,15.5040633 31.1330506,15.5040633 C31.1541709,15.5040633 31.1757405,15.5040633 31.1968608,15.5045127 C31.2184304,15.5040633 31.2395506,15.5040633 31.2611203,15.5040633 C32.3580253,15.5040633 33.4648165,15.8159241 34.4394937,16.4679557 L36.8831519,18.1027532 L36.8831519,6.12891772 C36.8831519,2.97121519 34.2992911,0.387803797 31.1415886,0.387803797" id="Fill-1" fill="#E94D3C" sketch:type="MSShapeGroup"></path>
                <path d="M34.4394937,16.4679557 L59.4935063,33.2302468 C62.1178101,34.9859241 62.8287089,38.5700759 61.0725823,41.1943797 C59.3164557,43.8191329 55.7327532,44.5295823 53.108,42.7739051 L28.0544367,26.0116139 C25.4296835,24.2559367 24.7192342,20.6717848 26.4749114,18.0470316 C28.231038,15.4227278 31.8147405,14.7122785 34.4394937,16.4679557" id="Fill-2" fill="#7E1E64" sketch:type="MSShapeGroup"></path>
                <path d="M25.4000253,18.1768987 L2.90066456,33.2302468 C0.275911392,34.9859241 -0.434537975,38.5700759 1.32113924,41.1943797 C2.42478481,42.8440063 4.25146203,43.7377975 6.1073481,43.7377975 C7.2038038,43.7377975 8.3110443,43.4259367 9.28572152,42.7739051 L25.4000253,31.9926899 L25.4000253,18.1768987" id="Fill-3" fill="#D40F65" sketch:type="MSShapeGroup"></path>
                <path d="M31.1330506,15.5040633 C30.0361456,15.5040633 28.9293544,15.8159241 27.9542278,16.4679557 L25.4000253,18.1768987 L25.4000253,31.9926899 L31.1968608,28.1142025 L28.0544367,26.0116139 C25.4296835,24.2559367 24.7192342,20.6717848 26.4749114,18.0470316 C27.5659747,16.4167278 29.3629937,15.5247342 31.1968608,15.5045127 C31.1757405,15.5040633 31.1541709,15.5040633 31.1330506,15.5040633" id="Fill-4" fill="#C20518" sketch:type="MSShapeGroup"></path>
                <path d="M31.1968608,15.5045127 C29.3629937,15.5247342 27.5659747,16.4167278 26.4749114,18.0470316 C24.7192342,20.6717848 25.4296835,24.2559367 28.0544367,26.0116139 L31.1968608,28.1142025 L34.3397342,26.0116139 C36.964038,24.2559367 37.6749367,20.6717848 35.9188101,18.0470316 C34.8277468,16.4167278 33.0307278,15.5247342 31.1968608,15.5045127" id="Fill-5" fill="#690228" sketch:type="MSShapeGroup"></path>
                <path d="M36.8831519,50.4994241 L36.8831519,50.9905823 C37.63,53.0280127 37.1891709,55.4123544 35.5606646,57.0408608 L31.3730127,61.2285127 L39.3870253,69.2425253 C40.5032532,70.3587532 41.9749304,70.9168671 43.4466076,70.9168671 C44.9182848,70.9168671 46.389962,70.3587532 47.5066392,69.2425253 C49.7390949,67.0096203 49.7390949,63.3558165 47.5066392,61.1229114 L36.8831519,50.4994241" id="Fill-6" fill="#FFCC21" sketch:type="MSShapeGroup"></path>
                <path d="M36.4418734,50.0581456 C36.6184747,50.3574241 36.7654177,50.6697342 36.8831519,50.9905823 L36.8831519,50.4994241 L36.4418734,50.0581456 M31.2453924,47.2469051 C29.7737152,47.2469051 28.302038,47.805019 27.1858101,48.9216962 C26.8375506,49.2695063 26.5436646,49.6519177 26.3041519,50.0581456 L27.4410506,48.9216962 C28.5253734,47.8373734 29.9444747,47.2797089 31.3730127,47.2482532 C31.3303228,47.2473544 31.2880823,47.2469051 31.2453924,47.2469051" id="Fill-7" fill="#E93E07" sketch:type="MSShapeGroup"></path>
                <path d="M25.4000253,50.9622722 L15.2398354,61.1229114 C13.0069304,63.3558165 13.0069304,67.0096203 15.2398354,69.2425253 C16.3560633,70.3587532 17.8277405,70.9168671 19.2994177,70.9168671 C20.7710949,70.9168671 22.2427722,70.3587532 23.3594494,69.2425253 L31.3730127,61.2285127 L27.1858101,57.0408608 C26.5796139,56.4351139 26.1383354,55.7246646 25.8610759,54.9661329 C25.564943,54.2997215 25.4000253,53.5636582 25.4000253,52.7907468 L25.4000253,50.9622722" id="Fill-8" fill="#F18926" sketch:type="MSShapeGroup"></path>
                <path d="M26.3041519,50.0581456 L25.4000253,50.9622722 L25.4000253,52.7907468 C25.4000253,53.5636582 25.564943,54.2997215 25.8610759,54.9661329 C25.2764494,53.3654873 25.4242911,51.5513924 26.3041519,50.0581456 M31.5010823,47.2469051 C31.4583924,47.2469051 31.4157025,47.2473544 31.3730127,47.2482532 C32.802,47.2797089 34.2211013,47.8373734 35.3049747,48.9216962 L36.4418734,50.0581456 C36.2023608,49.6519177 35.9089241,49.2695063 35.5606646,48.9216962 C34.4439873,47.805019 32.9723101,47.2469051 31.5010823,47.2469051" id="Fill-9" fill="#DC2908" sketch:type="MSShapeGroup"></path>
                <path d="M36.8831519,50.9905823 L36.8831519,52.7907468 C36.8831519,55.7565696 34.4565696,58.1831519 31.4907468,58.1831519 L30.7924304,58.1831519 C28.599519,58.1831519 26.7013924,56.8566203 25.8610759,54.9661329 C26.1383354,55.7246646 26.5796139,56.4351139 27.1858101,57.0408608 L31.3730127,61.2285127 L35.5606646,57.0408608 C37.1891709,55.4123544 37.63,53.0280127 36.8831519,50.9905823" id="Fill-10" fill="#F16E05" sketch:type="MSShapeGroup"></path>
                <path d="M31.3730127,47.2482532 C29.9444747,47.2797089 28.5253734,47.8373734 27.4410506,48.9216962 L26.3041519,50.0581456 C25.4242911,51.5513924 25.2764494,53.3654873 25.8610759,54.9661329 C26.7013924,56.8566203 28.599519,58.1831519 30.7924304,58.1831519 L31.4907468,58.1831519 C34.4565696,58.1831519 36.8831519,55.7565696 36.8831519,52.7907468 L36.8831519,50.9905823 C36.7654177,50.6697342 36.6184747,50.3574241 36.4418734,50.0581456 L35.3049747,48.9216962 C34.2211013,47.8373734 32.802,47.2797089 31.3730127,47.2482532" id="Fill-11" fill="#DC2101" sketch:type="MSShapeGroup"></path>
            </g>
        </g>
    </g>
</svg>