<?xml version="1.0" encoding="UTF-8" standalone="no"?>
<svg width="25px" height="25px" viewBox="0 0 25 25" version="1.1" xmlns="http://www.w3.org/2000/svg" xmlns:xlink="http://www.w3.org/1999/xlink" xmlns:sketch="http://www.bohemiancoding.com/sketch/ns">
    <!-- Generator: Sketch 3.3.2 (12043) - http://www.bohemiancoding.com/sketch -->
    <title>Artboard 11</title>
    <desc>Created with Sketch.</desc>
    <defs></defs>
    <g id="Icons" stroke="none" stroke-width="1" fill="none" fill-rule="evenodd" sketch:type="MSPage">
        <g id="Artboard-11" sketch:type="MSArtboardGroup" fill="#000000">
            <path d="M9.39083388,9.02393837 L7,9.02393837 L7,12.6965239 L9.39083388,12.6965239 L9.39083388,23.485037 L13.9883569,23.485037 L13.9883569,12.6506335 L17.1959002,12.6506335 L17.5373687,9.02393837 L13.9883569,9.02393837 L13.9883569,6.95808948 C13.9883569,6.10296415 14.1713379,5.76441837 15.049392,5.76441837 L17.5373133,5.76441837 L17.5373133,2 L14.3542081,2 C10.9332055,2 9.39083388,3.41733452 9.39083388,6.13174993 L9.39083388,9.02393837 L9.39083388,9.02393837 Z" id="facebook-icon" sketch:type="MSShapeGroup"></path>
        </g>
    </g>
</svg>