<?xml version="1.0" encoding="UTF-8" standalone="no"?>
<svg width="25px" height="25px" viewBox="0 0 25 25" version="1.1" xmlns="http://www.w3.org/2000/svg" xmlns:xlink="http://www.w3.org/1999/xlink" xmlns:sketch="http://www.bohemiancoding.com/sketch/ns">
    <!-- Generator: Sketch 3.3.2 (12043) - http://www.bohemiancoding.com/sketch -->
    <title>Artboard 12</title>
    <desc>Created with Sketch.</desc>
    <defs></defs>
    <g id="Icons" stroke="none" stroke-width="1" fill="none" fill-rule="evenodd" sketch:type="MSPage">
        <g id="Artboard-12" sketch:type="MSArtboardGroup" fill="#000000">
            <g id="google-plus-icon" sketch:type="MSLayerGroup" transform="translate(1.000000, 2.000000)">
                <path d="M22.8310671,4.60713244 L19.8042329,4.60713244 L19.8042329,7.45556859 L18.290788,7.45556859 L18.290788,4.60713244 L15.2638983,4.60713244 L15.2638983,3.18291437 L18.290788,3.18291437 L18.290788,0.334582519 L19.8042329,0.334582519 L19.8042329,3.18296652 L22.8310671,3.18296652 L22.8310671,4.60713244 L22.8310671,4.60713244 Z M14.2740164,16.388077 C14.2740164,18.5231787 12.2023742,21.122451 6.99057352,21.122451 C3.17889361,21.122451 0,19.5753197 0,16.973075 C0,14.9646412 1.3511891,12.3573902 7.6651983,12.3573902 C6.72746209,11.638163 6.49732272,10.6324859 7.07042684,9.5435283 C3.37345642,9.5435283 1.48019571,7.49817363 1.48019571,4.9011437 C1.48019571,2.3599123 3.48855381,0.0496971852 7.58418126,0.0496971852 L14.1452315,0.0496971852 L12.6791112,1.49785126 L10.9568619,1.49785126 C12.1718404,2.1529363 12.8180372,3.50206104 12.8180372,4.98911763 C12.8180372,6.35409541 12.0193377,7.45963615 10.8794468,8.2890003 C8.85662535,9.76072533 9.3744805,10.5824759 11.4938353,12.036992 C13.5834321,13.5102293 14.2740164,14.6474761 14.2740164,16.388077 L14.2740164,16.388077 Z M10.1818801,5.08199348 C9.87676398,2.89672533 8.3639287,1.10392415 6.59629429,1.05391407 C4.8280503,1.00442548 3.64216478,2.6767123 3.94755801,4.86255407 C4.25284041,7.04782222 5.9333067,8.57435496 7.70188317,8.62446933 C9.46946217,8.67395793 10.4868855,7.26752237 10.1818801,5.08199348 L10.1818801,5.08199348 Z M12.0046527,16.6072557 C12.0046527,14.8099176 10.262343,13.0967988 7.3391352,13.0967988 C4.70458521,13.0695253 2.47190634,14.6634335 2.47190634,16.5109902 C2.47190634,18.3963544 4.37458763,19.965805 7.00924844,19.965805 C10.3774404,19.9657529 12.0046527,18.4926199 12.0046527,16.6072557 L12.0046527,16.6072557 Z" id="Shape" sketch:type="MSShapeGroup"></path>
            </g>
        </g>
    </g>
</svg>