<?xml version="1.0" encoding="UTF-8" standalone="no"?>
<svg width="23px" height="18px" viewBox="0 0 23 18" version="1.1" xmlns="http://www.w3.org/2000/svg" xmlns:xlink="http://www.w3.org/1999/xlink" xmlns:sketch="http://www.bohemiancoding.com/sketch/ns">
    <!-- Generator: Sketch 3.3.2 (12043) - http://www.bohemiancoding.com/sketch -->
    <title>Social</title>
    <desc>Created with Sketch.</desc>
    <defs></defs>
    <g id="Icons" stroke="none" stroke-width="1" fill="none" fill-rule="evenodd" sketch:type="MSPage">
        <g id="Artboard-10" sketch:type="MSArtboardGroup" transform="translate(-2.000000, -4.000000)" fill="#000000">
            <g id="Social" sketch:type="MSLayerGroup" transform="translate(1.000000, 4.000000)">
                <path d="M23.8206381,2.15253985 C22.9806543,2.503184 22.0778851,2.74019733 21.1303958,2.8466317 C22.0973358,2.30110993 22.8401767,1.437328 23.1898467,0.407975704 C22.2847501,0.913134815 21.2823443,1.27994489 20.2153798,1.47758637 C19.3609881,0.620896593 18.1436267,0.0857001481 16.7963721,0.0857001481 C13.7729182,0.0857001481 11.5503249,2.74087526 12.2336498,5.498 C8.34073124,5.31422993 4.88925021,3.5592883 2.57904545,0.892588444 C1.35204184,2.87333156 1.94260175,5.4655117 4.02859656,6.77750696 C3.26087422,6.75466607 2.5384261,6.55634667 1.90702519,6.22609244 C1.85620944,8.26831822 3.41132652,10.1779313 5.66389945,10.6038773 C5.00468009,10.7726809 4.28261989,10.8113227 3.54870083,10.6793357 C4.14463601,12.4304705 5.87458808,13.704867 7.92428593,13.7403799 C5.95499555,15.1926536 3.47472152,15.8413244 0.989570943,15.5657215 C3.06243234,16.8163384 5.52458561,17.5461517 8.16977531,17.5461517 C16.8661953,17.5461517 21.7794742,10.6338625 21.4833353,4.43428207 C22.3986283,3.81283259 23.1926729,3.03650311 23.8206381,2.15253985 L23.8206381,2.15253985 Z" id="twitter-icon" sketch:type="MSShapeGroup"></path>
            </g>
        </g>
    </g>
</svg>