<?xml version="1.0" encoding="UTF-8" standalone="no"?>
<svg width="182px" height="140px" viewBox="0 0 182 140" version="1.1" xmlns="http://www.w3.org/2000/svg" xmlns:xlink="http://www.w3.org/1999/xlink" xmlns:sketch="http://www.bohemiancoding.com/sketch/ns">
    <!-- Generator: Sketch 3.3.2 (12043) - http://www.bohemiancoding.com/sketch -->
    <title>QD Logo</title>
    <desc>Created with Sketch.</desc>
    <defs></defs>
    <g id="QuoteDesk---Homepage" stroke="none" stroke-width="1" fill="none" fill-rule="evenodd" sketch:type="MSPage">
        <g id="Quotedesk-Homepage" sketch:type="MSArtboardGroup" transform="translate(-120.000000, 0.000000)">
            <g id="Header-Copy-2" sketch:type="MSLayerGroup">
                <g id="Menu" transform="translate(120.000000, 0.000000)" sketch:type="MSShapeGroup">
                    <g id="QD-Logo">
                        <rect id="Rectangle-25" fill="#FFFFFF" x="0" y="0" width="182" height="140"></rect>
                        <g id="Logo" transform="translate(27.460169, 16.792492)">
                            <path d="M64.112462,40.8062832 C64.112462,57.6147697 77.84325,71.2407425 94.7810326,71.2407425 L94.7810326,59.0665767 C84.6181705,59.0665767 76.379794,50.8910886 76.379794,40.8062832 L64.112462,40.8062832" id="Fill-1" fill="#08B0AC"></path>
                            <path d="M113.18179,40.8062832 C113.18179,50.8910886 104.943413,59.0665767 94.7805514,59.0665767 L94.7805514,71.2407425 C111.718334,71.2407425 125.449122,57.6147697 125.449122,40.8062832 L113.18179,40.8062832" id="Fill-2" fill="#2EAAE1"></path>
                            <path d="M100.914458,65.1536596 C100.914458,68.5152614 98.1684929,71.2407425 94.7805514,71.2407425 C91.3930911,71.2407425 88.647126,68.5152614 88.647126,65.1536596 C88.647126,61.7920578 91.3930911,59.0665767 94.7805514,59.0665767 C98.1684929,59.0665767 100.914458,61.7920578 100.914458,65.1536596" id="Fill-3" fill="#31A8E0"></path>
                            <path d="M100.914458,65.1536596 C100.914458,68.5152614 98.1684929,71.2407425 94.7805514,71.2407425 C91.3930911,71.2407425 88.647126,68.5152614 88.647126,65.1536596 C88.647126,61.7920578 91.3930911,59.0665767 94.7805514,59.0665767 C98.1684929,59.0665767 100.914458,61.7920578 100.914458,65.1536596" id="Fill-4" fill="#009AD7"></path>
                            <path d="M94.7810326,10.3718238 C77.84325,10.3718238 64.112462,23.9977966 64.112462,40.8062832 L76.379794,40.8062832 C76.379794,30.7210002 84.6186518,22.545512 94.7810326,22.545512 L94.7810326,10.3718238" id="Fill-5" fill="#7E1E64"></path>
                            <path d="M119.367189,0.153299357 C115.979729,0.153299357 113.233283,2.87878046 113.233283,6.24038226 L113.233283,16.4889935 C108.098434,12.6440928 101.708988,10.3622725 94.7810326,10.3622725 L94.7810326,22.5359607 C104.943895,22.5359607 113.182271,30.7114489 113.182271,40.7967318 L113.234727,40.7967318 C113.250608,44.1449617 115.989354,46.8546831 119.367189,46.8546831 C122.75465,46.8546831 125.501096,44.1296795 125.501096,40.7680777 L125.501096,6.24038226 C125.501096,2.87878046 122.75465,0.153299357 119.367189,0.153299357" id="Fill-6" fill="#424194"></path>
                            <path d="M113.233283,16.4889935 L113.233283,40.7680777 L113.234727,40.7967318 L125.449603,40.7967318 C125.449603,30.8633155 120.652105,22.043588 113.233283,16.4889935" id="Fill-7" fill="#312E84"></path>
                            <path d="M88.5349967,16.4493554 C88.5349967,19.8109572 91.2809618,22.5364383 94.6689033,22.5364383 C98.0563636,22.5364383 100.802329,19.8109572 100.802329,16.4493554 C100.802329,13.0877536 98.0563636,10.3622725 94.6689033,10.3622725 C91.2809618,10.3622725 88.5349967,13.0877536 88.5349967,16.4493554" id="Fill-8" fill="#672161"></path>
                            <path d="M119.315697,46.8933661 C115.928236,46.8933661 113.18179,44.1683625 113.18179,40.8062832 C113.18179,37.4446814 115.928236,34.7196778 119.315697,34.7196778 C122.703157,34.7196778 125.449603,37.4446814 125.449603,40.8062832 C125.449603,44.1683625 122.703157,46.8933661 119.315697,46.8933661" id="Fill-9" fill="#3F4D95"></path>
                            <path d="M31.0270956,59.1897893 C20.8647148,59.1897893 12.6263383,51.0138236 12.6263383,40.9290182 L0.358525061,40.9290182 C0.358525061,57.7370272 14.089313,71.363 31.0270956,71.363 L31.0270956,59.1897893" id="Fill-10" fill="#F18926"></path>
                            <path d="M61.6927788,40.9290182 L61.6927788,40.8822165 C61.6927788,37.5206147 58.9463324,34.7951336 55.5588722,34.7951336 C52.1714119,34.7951336 49.4249656,37.5206147 49.4249656,40.8822165 L49.4249656,41.425689 C49.429778,41.2604504 49.4374778,41.0956894 49.4374778,40.9290182 L61.6927788,40.9290182" id="Fill-11" fill="#FEC700"></path>
                            <path id="Fill-12" fill="#FEC700" d="M61.7052911,40.9290182 L61.6927788,40.9290182 L61.6927788,41.4070638 C61.695185,41.2475561 61.7052911,41.0894811 61.7052911,40.9290182"></path>
                            <path d="M49.4374778,40.9290182 C49.4374778,41.0956894 49.429778,41.2604504 49.4249656,41.425689 C49.1588389,51.2803066 41.0316292,59.1897893 31.0367205,59.1897893 L31.0367205,59.1902669 L31.0270956,59.1897893 C27.6396354,59.1897893 24.8936703,61.9147928 24.8936703,65.2763946 C24.8936703,68.6379964 27.6396354,71.3634775 31.0270956,71.3634775 L31.0367205,71.363 L31.0367205,71.3634775 C37.9353201,71.3634775 44.3016665,69.1021926 49.4249656,65.2869011 L49.4249656,74.9323439 C49.4249656,78.2939457 52.1714119,81.0189492 55.5588722,81.0189492 C58.9463324,81.0189492 61.6927788,78.2939457 61.6927788,74.9323439 L61.6927788,40.9290182 L49.4374778,40.9290182" id="Fill-13" fill="#FFCC21"></path>
                            <path d="M61.6927788,41.4070638 L61.6927788,40.9290182 L49.4374778,40.9290182 C49.4374778,41.0956894 49.429778,41.2604504 49.4249656,41.425689 L49.4249656,65.2869011 C56.7605327,59.8239997 61.5407064,51.1733313 61.6927788,41.4070638" id="Fill-14" fill="#F9AD03"></path>
                            <path d="M30.9717529,10.4907383 C14.0599573,10.5208251 0.358525061,24.1353362 0.358525061,40.9251976 L12.6263383,40.9251976 C12.6263383,30.856152 20.8382465,22.6906927 30.9784902,22.6644265 C27.6131671,22.6386378 24.893189,19.9231857 24.893189,16.5778212 C24.893189,16.5568082 24.8936703,16.5353176 24.8936703,16.5143046 C24.9278384,13.1999821 27.6304918,10.5198699 30.9717529,10.4907383" id="Fill-15" fill="#EC5F50"></path>
                            <path d="M61.695185,40.9251976 C61.695185,24.1167111 47.964397,10.4907383 31.0270956,10.4907383 L31.0270956,22.6644265 C41.1899577,22.6644265 49.4283342,30.8403922 49.4283342,40.9251976 L61.695185,40.9251976" id="Fill-16" fill="#D40F65"></path>
                            <path d="M6.52178742,47.3341614 C3.13432714,47.3341614 0.387880804,44.6091579 0.387880804,41.2470785 C0.387880804,37.8854767 3.13432714,35.1604732 6.52178742,35.1604732 C9.90924769,35.1604732 12.655694,37.8854767 12.655694,41.2470785 C12.655694,44.6091579 9.90924769,47.3341614 6.52178742,47.3341614" id="Fill-17" fill="#EE753C"></path>
                            <path d="M24.893189,16.5778212 C24.893189,13.2162194 27.6391541,10.4907383 31.0270956,10.4907383 C34.4145559,10.4907383 37.160521,13.2162194 37.160521,16.5778212 C37.160521,19.939423 34.4145559,22.6649041 31.0270956,22.6649041 C27.6391541,22.6649041 24.893189,19.939423 24.893189,16.5778212" id="Fill-18" fill="#D31E4C"></path>
                            <path d="M31.0545264,10.4907383 L31.0001461,10.4907383 C27.6458915,10.5050653 24.9278384,13.1909083 24.8936703,16.5143046 L24.8936703,16.6413377 C24.9278384,19.950407 27.6227919,22.6276538 30.9573156,22.6644265 L31.0973569,22.6644265 C34.452574,22.6271762 37.160521,19.9160221 37.160521,16.5778212 C37.160521,13.2252932 34.4294744,10.5050653 31.0545264,10.4907383" id="Fill-19" fill="#E01D2A"></path>
                            <path d="M24.893189,65.2763946 C24.893189,61.9147928 27.6391541,59.1893117 31.0270956,59.1893117 C34.4145559,59.1893117 37.160521,61.9147928 37.160521,65.2763946 C37.160521,68.6379964 34.4145559,71.3634775 31.0270956,71.3634775 C27.6391541,71.3634775 24.893189,68.6379964 24.893189,65.2763946" id="Fill-20" fill="#F9B005"></path>
                            <path d="M55.5593534,46.8933661 C52.1718931,46.8933661 49.4254468,44.1683625 49.4254468,40.8062832 C49.4254468,37.4446814 52.1718931,34.7196778 55.5593534,34.7196778 C58.9468137,34.7196778 61.69326,37.4446814 61.69326,40.8062832 C61.69326,44.1683625 58.9468137,46.8933661 55.5593534,46.8933661" id="Fill-21" fill="#CF3C6F"></path>
                            <path d="M70.237225,46.8933661 C66.8497648,46.8933661 64.1033184,44.1683625 64.1033184,40.8062832 C64.1033184,37.4446814 66.8497648,34.7196778 70.237225,34.7196778 C73.6246853,34.7196778 76.3711316,37.4446814 76.3711316,40.8062832 C76.3711316,44.1683625 73.6246853,46.8933661 70.237225,46.8933661" id="Fill-22" fill="#129793"></path>
                            <g id="Imported-Layers" transform="translate(1.071119, 85.340604)">
                                <path d="M48.4426636,0.768110526 L48.6876211,0.768110526 L48.7318065,0.777341699 M50.0158952,6.93838046 L50.0158952,14.1513883 C50.0158952,15.7464581 50.699218,16.0760879 50.991074,16.182631 L52.0991964,16.2753274 L52.6848463,16.2753274 C53.0728248,16.2753274 53.7584731,16.4487965 53.9929656,17.6111551 L54.001105,17.6526953 L53.9949036,17.8096253 C53.7925811,18.9823689 53.0158489,19.1573766 52.570507,19.1573766 L51.4709115,19.1573766 C49.6263663,19.1573766 48.2442171,18.1611791 47.3632229,16.1960932 L47.3465565,16.1522451 C47.1911326,15.6687624 47.112064,15.1006606 47.112064,14.463325 L47.112064,6.93838046 L50.0158952,6.93838046" id="Fill-1" fill="#666B6C"></path>
                                <path d="M17.290431,6.05988049 C17.290431,5.69063357 17.5826745,5.42677587 17.9284056,5.42677587 C18.2737491,5.42677587 18.5663803,5.69063357 18.5663803,6.05988049 L18.5663803,13.1028809 C18.5663803,15.3187471 20.346973,17.0857475 22.5535281,17.1122871 C24.7864394,17.0857475 26.5937758,15.3187471 26.5937758,13.1028809 L26.5937758,6.05988049 C26.5937758,5.69063357 26.9127632,5.42677587 27.2317505,5.42677587 C27.6038378,5.42677587 27.8964689,5.69063357 27.8964689,6.05988049 L27.8964689,13.1028809 C27.8964689,16.0045463 25.530614,18.3781117 22.5535281,18.3781117 C19.6295422,18.3781117 17.290431,16.0045463 17.290431,13.1028809 L17.290431,6.05988049" id="Fill-2" fill="#666B6C"></path>
                                <path d="M22.5531405,19.1573766 C19.2186958,19.1573766 16.5055594,16.4414885 16.5055594,13.1028809 L16.5055594,6.05988049 C16.5055594,5.2683074 17.1303559,4.64751101 17.9284056,4.64751101 C18.7260677,4.64751101 19.3508643,5.2683074 19.3508643,6.05988049 L19.3508643,13.1028809 C19.3508643,14.8929592 20.7613077,16.3122521 22.5624427,16.3337915 C24.3748178,16.3118675 25.8089042,14.8929592 25.8089042,13.1028809 L25.8089042,6.05988049 C25.8089042,5.2813849 26.4472665,4.64751101 27.2317505,4.64751101 C28.0441411,4.64751101 28.680953,5.2683074 28.680953,6.05988049 L28.680953,13.1028809 C28.680953,16.4414885 25.9321581,19.1573766 22.5531405,19.1573766" id="Fill-3" fill="#666B6C"></path>
                                <path d="M37.4013611,5.45293086 C40.830378,5.45293086 43.5679326,8.40729088 43.5679326,11.9155213 C43.5679326,15.4241363 40.830378,18.3784963 37.4013611,18.3784963 C33.999088,18.3784963 31.2344019,15.4241363 31.2344019,11.9155213 C31.2344019,8.40729088 33.999088,5.45293086 37.4013611,5.45293086 M37.4013611,17.1122871 C40.0594596,17.1122871 42.2923709,14.7910317 42.2923709,11.9155213 C42.2923709,9.0403955 40.0594596,6.69298511 37.4013611,6.69298511 C34.742875,6.69298511 32.5103513,9.0403955 32.5103513,11.9155213 C32.5103513,14.7910317 34.742875,17.1122871 37.4013611,17.1122871" id="Fill-4" fill="#666B6C"></path>
                                <path d="M50.202714,18.3784963 C48.9004085,18.3784963 47.9170904,17.429224 47.9170904,16.1364752 L47.9170904,6.7191401 L45.9260358,6.7191401 C45.2884487,6.7191401 45.2884487,6.40297242 45.2884487,6.08642011 C45.2884487,5.7698678 45.2884487,5.45293086 45.9260358,5.45293086 L47.9170904,5.45293086 L47.9170904,1.68968931 C47.9170904,1.37352163 48.2356901,1.05696932 48.555065,1.05696932 C48.9004085,1.05696932 49.245752,1.37352163 49.245752,1.68968931 L49.245752,5.45293086 L51.289519,5.45293086 C51.6085063,5.45293086 51.9278812,5.7698678 51.9278812,6.08642011 C51.9278812,6.40297242 51.6085063,6.7191401 51.289519,6.7191401 L49.245752,6.7191401 L49.245752,16.1364752 C49.245752,16.7691952 49.8841143,17.0861321 50.202714,17.0861321" id="Fill-5" fill="#666B6C"></path>
                                <path d="M61.0374306,19.1569919 C57.1165609,19.1569919 53.9266876,15.9203119 53.9266876,11.9420609 C53.9266876,7.93457789 57.1165609,4.67405063 61.0374306,4.67405063 C64.7575283,4.67405063 67.7908148,7.56840803 68.0931357,11.4062682 L68.0958489,11.572814 C68.0958489,12.3347704 67.4706647,12.9317196 66.6730026,12.9317196 L56.8824559,12.9317196 C57.3316738,14.8933439 59.0262213,16.3334069 61.0374306,16.3334069 C62.4784937,16.3334069 63.8300232,15.5783738 64.5641204,14.3637053 C64.811791,13.9436869 65.2629468,13.6882911 65.7664274,13.6882911 C66.0241754,13.6882911 66.2757219,13.756371 66.4923852,13.8859921 L66.5493611,13.9236861 C67.1834598,14.3802445 67.3640772,15.1875875 66.9784243,15.8426162 C65.6633283,17.9261688 63.4470834,19.1569919 61.0374306,19.1569919 M57.1188864,10.1342895 L64.8927975,10.1342895 C64.2509469,8.56345156 62.7490321,7.4976357 61.0374306,7.4976357 C59.2932715,7.4976357 57.7901939,8.54421995 57.1188864,10.1342895" id="Fill-6" fill="#666B6C"></path>
                                <path d="M86.1618493,11.9420609 C86.1618493,8.35459627 88.9792477,5.45293086 92.4877207,5.45293086 C95.8372814,5.45293086 98.4949924,8.09073857 98.7612673,11.4674248 L98.7612673,11.572814 C98.7612673,11.9155213 98.4690238,12.153224 98.1232927,12.153224 L87.437411,12.153224 C87.5707423,14.9752705 89.803266,17.1122871 92.4877207,17.1122871 C94.215601,17.1122871 95.8105377,16.2153248 96.6876559,14.7644921 C96.8740872,14.4479398 97.2725306,14.3952451 97.538418,14.5537136 C97.8306615,14.7644921 97.9372491,15.133739 97.7512054,15.4502913 C96.634556,17.2176763 94.6938882,18.3781117 92.4877207,18.3781117 C88.9792477,18.3781117 86.1618493,15.4764463 86.1618493,11.9420609 M87.5172547,10.9131697 L97.3791181,10.9131697 C96.9535433,8.48652511 94.8799319,6.71875547 92.4877207,6.71875547 C90.0424096,6.71875547 87.9955419,8.45998549 87.5172547,10.9131697" id="Fill-7" fill="#666B6C"></path>
                                <path d="M92.4877207,19.1569919 C88.566851,19.1569919 85.3769777,15.9203119 85.3769777,11.9420609 C85.3769777,7.93457789 88.566851,4.67405063 92.4877207,4.67405063 C96.2078184,4.67405063 99.2411049,7.56840803 99.5434258,11.4062682 L99.546139,11.572814 C99.546139,12.3347704 98.9209548,12.9317196 98.1232927,12.9317196 L88.332746,12.9317196 C88.7819639,14.8933439 90.4765114,16.3334069 92.4877207,16.3334069 C93.9287837,16.3334069 95.2803133,15.5783738 96.0144105,14.3637053 C96.2620811,13.9436869 96.7132369,13.6882911 97.2167175,13.6882911 C97.4744655,13.6882911 97.726012,13.756371 97.9430629,13.8859921 L97.9996512,13.9236861 C98.6337499,14.3802445 98.8143673,15.1875875 98.4287143,15.8426162 C97.1136183,17.9261688 94.8973735,19.1569919 92.4877207,19.1569919 M88.5691765,10.1342895 L96.3434752,10.1342895 C95.701237,8.56345156 94.1993222,7.4976357 92.4877207,7.4976357 C90.7435616,7.4976357 89.240484,8.54421995 88.5691765,10.1342895" id="Fill-8" fill="#666B6C"></path>
                                <path d="M101.435257,15.6876094 C101.648045,15.4241363 102.046488,15.3710571 102.339119,15.6083751 C103.242981,16.2680194 104.67823,17.1122871 106.326267,17.1122871 C107.336329,17.1122871 108.213835,16.7957348 108.798322,16.320714 C109.436296,15.8987725 109.782028,15.3183625 109.782028,14.7383371 C109.755284,14.1313875 109.51614,13.7094459 108.851422,13.1555755 C108.293291,12.7332494 107.363073,12.4166971 106.087123,12.205534 L106.033636,12.1789943 C104.864274,11.9686005 103.827468,11.7043582 103.083294,11.1770274 C102.259275,10.7020067 101.674788,9.85812358 101.674788,8.85577204 C101.674788,7.82688087 102.259275,6.92991855 103.083294,6.32335356 C103.854212,5.79602279 104.944118,5.45293086 106.273167,5.45293086 C107.94756,5.45293086 109.143665,6.2175797 110.153727,6.85106895 C110.446358,7.0618474 110.525815,7.45763395 110.339771,7.74764664 C110.153727,8.03804396 109.755284,8.11689356 109.462653,7.9322701 C108.506078,7.29955011 107.549116,6.63990587 106.273167,6.63990587 C105.210005,6.63990587 104.359243,6.92991855 103.801112,7.37839971 C103.269337,7.80072588 102.977094,8.32805664 102.977094,8.85577204 C102.977094,9.38348743 103.216625,9.75273435 103.721268,10.1481363 C104.306143,10.5439228 105.183261,10.8604751 106.379367,11.0450986 L106.432467,11.0450986 C107.68206,11.229722 108.692122,11.598969 109.595984,12.1001447 C110.446358,12.6543998 111.057589,13.6567513 111.057589,14.7383371 C111.057589,15.8195382 110.446358,16.6899609 109.56924,17.3492205 C108.665378,18.0088648 107.602216,18.3781117 106.326267,18.3781117 C104.226299,18.3515721 102.578263,17.3757602 101.515101,16.5318771 C101.249213,16.2941744 101.22247,15.9510824 101.435257,15.6876094" id="Fill-9" fill="#666B6C"></path>
                                <path d="M106.325879,19.1573766 L106.315802,19.1573766 C104.461567,19.133914 102.681362,18.4554228 101.024798,17.1399806 L100.990303,17.1111332 C100.41473,16.5972646 100.344189,15.7941525 100.822088,15.200665 C101.090301,14.869112 101.49107,14.6783345 101.920909,14.6783345 C102.242997,14.6783345 102.559658,14.7891085 102.816631,14.9910404 C104.042194,15.8818486 105.222796,16.3337915 106.325879,16.3337915 C107.099511,16.3337915 107.819267,16.1095509 108.301043,15.7179953 L108.36267,15.673378 C108.765764,15.4064432 108.996768,15.0656591 108.996768,14.7383371 C108.984753,14.482172 108.93049,14.2383152 108.346391,13.7517555 C108.066163,13.540977 107.395243,13.2121165 105.957668,12.9740291 L105.841391,12.9551821 L105.782089,12.9255655 C104.670091,12.7205565 103.532512,12.4405442 102.656944,11.8320561 C101.549596,11.1804891 100.889529,10.0704406 100.889529,8.85615667 C100.889529,7.6564888 101.518589,6.50528459 102.615471,5.69832621 C103.601503,5.02291205 104.85846,4.67443527 106.272779,4.67443527 C108.151433,4.67443527 109.470404,5.50139452 110.530853,6.16642361 L110.615348,6.22104139 C111.241307,6.67336887 111.411072,7.52763701 111.001776,8.16651111 C110.743253,8.5699903 110.296748,8.8111547 109.807996,8.8111547 C109.53552,8.8111547 109.270408,8.73461289 109.041341,8.58999118 L108.942118,8.52421907 C108.083604,7.95611729 107.272764,7.41917073 106.272779,7.41917073 C105.450699,7.41917073 104.748384,7.61917948 104.294903,7.98419545 C103.954598,8.25420726 103.761578,8.57075957 103.761578,8.85615667 C103.761578,9.04078013 103.79336,9.20771051 104.185215,9.52003187 C104.544511,9.75696531 105.222408,10.0719791 106.440994,10.266603 L106.547969,10.2750649 C107.799888,10.460073 108.922351,10.8347048 109.978536,11.4208843 L110.02621,11.449347 C111.146348,12.1789943 111.842073,13.4394341 111.842073,14.7383371 C111.842073,15.9676216 111.21999,17.0857475 110.042876,17.9704016 C108.96111,18.7604361 107.713455,19.1573766 106.325879,19.1573766" id="Fill-10" fill="#666B6C"></path>
                                <path d="M114.475366,1.93046907 C114.475366,1.58737714 114.76761,1.29736445 115.113341,1.29736445 C115.485428,1.29736445 115.777672,1.58737714 115.777672,1.93046907 L115.777672,12.9705674 L123.486467,5.34754164 C123.752355,5.08368394 124.124442,5.08368394 124.390329,5.34754164 C124.656217,5.58485971 124.656217,5.98064626 124.390329,6.24411932 L119.366376,11.229722 L124.416686,17.3234502 C124.656217,17.6134629 124.629473,17.9827098 124.363586,18.2461828 C124.230642,18.3519567 124.070954,18.3784963 123.938398,18.3784963 C123.752355,18.3784963 123.539567,18.3258017 123.433367,18.1407936 L118.436158,12.153224 L115.777672,14.7910317 L115.777672,17.7450071 C115.777672,18.088099 115.485428,18.3784963 115.113341,18.3784963 C114.76761,18.3784963 114.475366,18.088099 114.475366,17.7450071 L114.475366,1.93046907" id="Fill-11" fill="#666B6C"></path>
                                <path d="M123.938786,19.1573766 C123.446933,19.1573766 123.035699,18.95506 122.796556,18.598506 L118.381507,13.3090438 L116.562931,15.1137381 L116.562931,17.7453917 C116.562931,18.5238873 115.912941,19.1573766 115.113728,19.1573766 C114.329244,19.1573766 113.690882,18.5238873 113.690882,17.7453917 L113.690882,1.9308537 C113.690882,1.15235811 114.329244,0.518484221 115.113728,0.518484221 C115.912941,0.518484221 116.562931,1.15235811 116.562931,1.9308537 L116.562931,11.0951008 L122.9326,4.79597905 C123.481041,4.25364763 124.376376,4.24710888 124.931019,4.78290155 C125.207371,5.03675881 125.364733,5.37985074 125.374423,5.75063619 C125.384888,6.13949936 125.232177,6.51105408 124.944584,6.79529728 L120.424887,11.2808781 L125.023265,16.8288131 C125.513955,17.4238392 125.46977,18.2511831 124.918228,18.7973608 L124.854663,18.8539017 C124.605442,19.052372 124.288781,19.1573766 123.938786,19.1573766" id="Fill-12" fill="#666B6C"></path>
                                <path d="M37.4013611,4.64751101 C33.3638265,4.64751101 30.0906211,7.89573004 30.0906211,11.9024438 C30.0906211,15.9091575 33.3638265,19.1573766 37.4013611,19.1573766 C41.4388957,19.1573766 44.712101,15.9091575 44.712101,11.9024438 C44.712101,7.89573004 41.4388957,4.64751101 37.4013611,4.64751101 M37.4013611,16.3487921 C34.9269806,16.3487921 32.92081,14.3583205 32.92081,11.9024438 C32.92081,9.44695175 34.9269806,7.45648005 37.4013611,7.45648005 C39.8757415,7.45648005 41.8819121,9.44695175 41.8819121,11.9024438 C41.8819121,14.3583205 39.8757415,16.3487921 37.4013611,16.3487921" id="Fill-13" fill="#666B6C"></path>
                                <path d="M83.9564569,12.0832209 C83.9564569,8.07689181 80.6832516,4.82867278 76.645717,4.82867278 C72.60857,4.82867278 69.3353646,8.07689181 69.3353646,12.0832209 C69.3353646,16.0903193 72.60857,19.3381537 76.645717,19.3381537 C80.6832516,19.3381537 83.9564569,16.0903193 83.9564569,12.0832209" id="Fill-14" fill="#666B6C"></path>
                                <path d="M13.2133621,23.6175717 L13.2133621,23.6175717 C12.4292656,23.6175717 11.7881903,22.9810054 11.7881903,22.203279 L11.7881903,15.4591378 C11.7881903,14.6810269 12.4292656,14.0448452 13.2133621,14.0448452 C13.9970709,14.0448452 14.6381463,14.6810269 14.6381463,15.4591378 L14.6381463,22.203279 C14.6381463,22.9810054 13.9970709,23.6175717 13.2133621,23.6175717" id="Fill-15" fill="#666B6C"></path>
                                <path d="M13.3149109,19.8170208 L13.1110381,19.8170208 C12.3831423,19.8170208 11.7878027,20.6097478 11.7878027,19.8874085 L11.7878027,11.5574287 C11.7878027,10.8350894 12.3831423,10.2442943 13.1110381,10.2442943 L13.3149109,10.2442943 C14.0428067,10.2442943 14.6385339,10.8350894 14.6385339,11.5574287 L14.6385339,19.8874085 C14.6385339,20.6097478 14.0428067,19.8170208 13.3149109,19.8170208" id="Fill-16" fill="#666B6C"></path>
                                <path d="M7.33322022,4.6617424 C3.2956856,4.6617424 0.0224802734,7.90996143 0.0224802734,11.9166752 C0.0224802734,15.9230043 3.2956856,19.1712233 7.33322022,19.1712233 C11.3707548,19.1712233 14.6439602,15.9230043 14.6439602,11.9166752 C14.6439602,7.90996143 11.3707548,4.6617424 7.33322022,4.6617424" id="Fill-17" fill="#666B6C"></path>
                                <path d="M82.5254713,0.382324418 L82.5254713,0.382324418 C81.7417624,0.382324418 81.1002995,1.01889073 81.1002995,1.79661706 L81.1002995,8.54075826 C81.1002995,9.31886922 81.7417624,9.9550509 82.5254713,9.9550509 C83.3099553,9.9550509 83.9506431,9.31886922 83.9506431,8.54075826 L83.9506431,1.79661706 C83.9506431,1.01889073 83.3099553,0.382324418 82.5254713,0.382324418" id="Fill-18" fill="#666B6C"></path>
                                <path d="M82.6274077,4.1828753 L82.4235349,4.1828753 C81.6956391,4.1828753 81.1002995,3.39014831 81.1002995,4.11248761 L81.1002995,12.4424674 C81.1002995,13.1648067 81.6956391,13.7556018 82.4235349,13.7556018 L82.6274077,13.7556018 C83.3553034,13.7556018 83.9510307,13.1648067 83.9510307,12.4424674 L83.9510307,4.11248761 C83.9510307,3.39014831 83.3553034,4.1828753 82.6274077,4.1828753" id="Fill-19" fill="#666B6C"></path>
                                <path d="M47.1322187,14.1398494 L47.1322187,7.4976357 L45.9264234,7.4976357 C45.2775962,7.4976357 44.5039647,7.25300961 44.5039647,6.08642011 C44.5039647,4.91944598 45.2775962,4.67443527 45.9264234,4.67443527 L47.1322187,4.67443527 L47.1322187,1.68968931 C47.1322187,0.938117964 47.7969372,0.278089089 48.555065,0.278089089 C49.341487,0.278089089 50.0310112,0.938117964 50.0310112,1.68968931 L50.0310112,4.67443527 L51.2899066,4.67443527 C52.0480344,4.67443527 52.7127528,5.33407951 52.7127528,6.08642011 C52.7127528,6.83837609 52.0480344,7.4976357 51.2899066,7.4976357 L50.0310112,7.4976357 L50.0310112,14.1398494" id="Fill-20" fill="#6F7575"></path>
                                <path d="M81.126268,12.0832209 C81.126268,14.5390976 79.120485,16.5299539 76.645717,16.5299539 C74.1713366,16.5299539 72.1655535,14.5390976 72.1655535,12.0832209 C72.1655535,9.62811352 74.1713366,7.63725719 76.645717,7.63725719 C79.120485,7.63725719 81.126268,9.62811352 81.126268,12.0832209" id="Fill-21" fill="#FFFFFF"></path>
                                <path d="M7.33322022,16.3626389 C4.85883978,16.3626389 2.85266918,14.3721672 2.85266918,11.9162905 C2.85266918,9.46079851 4.85883978,7.47032681 7.33322022,7.47032681 C9.80760066,7.47032681 11.8137713,9.46079851 11.8137713,11.9162905 C11.8137713,14.3721672 9.80760066,16.3626389 7.33322022,16.3626389" id="Fill-22" fill="#FFFFFF"></path>
                            </g>
                        </g>
                    </g>
                </g>
            </g>
        </g>
    </g>
</svg>